----------------------------------------------------------------------
Ran 31 tests in 0.075s

OK
Name             Stmts   Miss Branch BrPart  Cover   Missing
------------------------------------------------------------
Cache1000.py         1      0      0      0   100%
Collatz.py          51      0     22      0   100%
TestCollatz.py     136      0      0      0   100%
------------------------------------------------------------
TOTAL              188      0     22      0   100%